Segundo Semestre - BCC UFPel (2025.2)/Técnicas Digitais/Trabalho Quartus II/iupe/simulation/qsim/lerolero.msim.vcd
$comment
	File created using the following command:
		vcd file lerolero.msim.vcd -direction
$end
$date
	Thu Oct 09 11:27:32 2025
$end
$version
	ModelSim Version 10.1d
$end
$timescale
	1ps
$end
$scope module turtle_vlg_vec_tst $end
$var reg 1 ! a $end
$var reg 1 " b $end
$var reg 1 # c $end
$var wire 1 $ s $end
$var wire 1 % sampler $end
$scope module i1 $end
$var wire 1 & gnd $end
$var wire 1 ' vcc $end
$var wire 1 ( unknown $end
$var tri1 1 ) devclrn $end
$var tri1 1 * devpor $end
$var tri1 1 + devoe $end
$var wire 1 , s~output_o $end
$var wire 1 - a~input_o $end
$var wire 1 . b~input_o $end
$var wire 1 / c~input_o $end
$var wire 1 0 s~0_combout $end
$upscope $end
$upscope $end
$enddefinitions $end
#0
$dumpvars
0!
0"
0#
x$
x%
0&
1'
x(
1)
1*
1+
x,
0-
0.
0/
x0
$end
#3668
10
#5000
1#
0%
#5507
1/
#8124
1,
1$
#10000
1"
0#
1%
#10517
1.
#10681
0/
#15000
1#
0%
#15507
1/
#20000
1!
0"
0#
1%
#20507
1-
#20681
0/
#20691
0.
#25000
1#
0%
#25507
1/
#30000
1"
0#
1%
#30517
1.
#30681
0/
#34049
00
#34349
10
#35000
1#
0%
#35507
1/
#38880
00
#40000
0!
0"
0#
1%
#40681
0/
0-
#40691
0.
#43236
0,
0$
#44349
10
#45000
1#
0%
#45507
1/
#48805
1,
1$
#50000
1"
0#
1%
#50517
1.
#50681
0/
#55000
1#
0%
#55507
1/
#60000
1!
0"
0#
1%
#60507
1-
#60681
0/
#60691
0.
#65000
1#
0%
#65507
1/
#70000
1"
0#
1%
#70517
1.
#70681
0/
#74049
00
#74349
10
#75000
1#
0%
#75507
1/
#78880
00
#80000
0!
0"
0#
1%
#80681
0/
0-
#80691
0.
#83236
0,
0$
#84349
10
#85000
1#
0%
#85507
1/
#88805
1,
1$
#90000
1"
0#
1%
#90517
1.
#90681
0/
#95000
1#
0%
#95507
1/
#100000
1!
0"
0#
1%
#100507
1-
#100681
0/
#100691
0.
#105000
1#
0%
#105507
1/
#110000
1"
0#
1%
#110517
1.
#110681
0/
#114049
00
#114349
10
#115000
1#
0%
#115507
1/
#118880
00
#120000
0!
0"
0#
1%
#120681
0/
0-
#120691
0.
#123236
0,
0$
#124349
10
#125000
1#
0%
#125507
1/
#128805
1,
1$
#130000
1"
0#
1%
#130517
1.
#130681
0/
#135000
1#
0%
#135507
1/
#140000
1!
0"
0#
1%
#140507
1-
#140681
0/
#140691
0.
#145000
1#
0%
#145507
1/
#150000
1"
0#
1%
#150517
1.
#150681
0/
#154049
00
#154349
10
#155000
1#
0%
#155507
1/
#158880
00
#160000
0!
0"
0#
1%
#160681
0/
0-
#160691
0.
#163236
0,
0$
#164349
10
#165000
1#
0%
#165507
1/
#168805
1,
1$
#170000
1"
0#
1%
#170517
1.
#170681
0/
#175000
1#
0%
#175507
1/
#180000
1!
0"
0#
1%
#180507
1-
#180681
0/
#180691
0.
#185000
1#
0%
#185507
1/
#190000
1"
0#
1%
#190517
1.
#190681
0/
#194049
00
#194349
10
#195000
1#
0%
#195507
1/
#198880
00
#200000
0!
0"
0#
1%
#200681
0/
0-
#200691
0.
#203236
0,
0$
#204349
10
#205000
1#
0%
#205507
1/
#208805
1,
1$
#210000
1"
0#
1%
#210517
1.
#210681
0/
#215000
1#
0%
#215507
1/
#220000
1!
0"
0#
1%
#220507
1-
#220681
0/
#220691
0.
#225000
1#
0%
#225507
1/
#230000
1"
0#
1%
#230517
1.
#230681
0/
#234049
00
#234349
10
#235000
1#
0%
#235507
1/
#238880
00
#240000
0!
0"
0#
1%
#240681
0/
0-
#240691
0.
#243236
0,
0$
#244349
10
#245000
1#
0%
#245507
1/
#248805
1,
1$
#250000
1"
0#
1%
#250517
1.
#250681
0/
#255000
1#
0%
#255507
1/
#260000
1!
0"
0#
1%
#260507
1-
#260681
0/
#260691
0.
#265000
1#
0%
#265507
1/
#270000
1"
0#
1%
#270517
1.
#270681
0/
#274049
00
#274349
10
#275000
1#
0%
#275507
1/
#278880
00
#280000
0!
0"
0#
1%
#280681
0/
0-
#280691
0.
#283236
0,
0$
#284349
10
#285000
1#
0%
#285507
1/
#288805
1,
1$
#290000
1"
0#
1%
#290517
1.
#290681
0/
#295000
1#
0%
#295507
1/
#300000
1!
0"
0#
1%
#300507
1-
#300681
0/
#300691
0.
#305000
1#
0%
#305507
1/
#310000
1"
0#
1%
#310517
1.
#310681
0/
#314049
00
#314349
10
#315000
1#
0%
#315507
1/
#318880
00
#320000
0!
0"
0#
1%
#320681
0/
0-
#320691
0.
#323236
0,
0$
#324349
10
#325000
1#
0%
#325507
1/
#328805
1,
1$
#330000
1"
0#
1%
#330517
1.
#330681
0/
#335000
1#
0%
#335507
1/
#340000
1!
0"
0#
1%
#340507
1-
#340681
0/
#340691
0.
#345000
1#
0%
#345507
1/
#350000
1"
0#
1%
#350517
1.
#350681
0/
#354049
00
#354349
10
#355000
1#
0%
#355507
1/
#358880
00
#360000
0!
0"
0#
1%
#360681
0/
0-
#360691
0.
#363236
0,
0$
#364349
10
#365000
1#
0%
#365507
1/
#368805
1,
1$
#370000
1"
0#
1%
#370517
1.
#370681
0/
#375000
1#
0%
#375507
1/
#380000
1!
0"
0#
1%
#380507
1-
#380681
0/
#380691
0.
#385000
1#
0%
#385507
1/
#390000
1"
0#
1%
#390517
1.
#390681
0/
#394049
00
#394349
10
#395000
1#
0%
#395507
1/
#398880
00
#400000
0!
0"
0#
1%
#400681
0/
0-
#400691
0.
#403236
0,
0$
#404349
10
#405000
1#
0%
#405507
1/
#408805
1,
1$
#410000
1"
0#
1%
#410517
1.
#410681
0/
#415000
1#
0%
#415507
1/
#420000
1!
0"
0#
1%
#420507
1-
#420681
0/
#420691
0.
#425000
1#
0%
#425507
1/
#430000
1"
0#
1%
#430517
1.
#430681
0/
#434049
00
#434349
10
#435000
1#
0%
#435507
1/
#438880
00
#440000
0!
0"
0#
1%
#440681
0/
0-
#440691
0.
#443236
0,
0$
#444349
10
#445000
1#
0%
#445507
1/
#448805
1,
1$
#450000
1"
0#
1%
#450517
1.
#450681
0/
#455000
1#
0%
#455507
1/
#460000
1!
0"
0#
1%
#460507
1-
#460681
0/
#460691
0.
#465000
1#
0%
#465507
1/
#470000
1"
0#
1%
#470517
1.
#470681
0/
#474049
00
#474349
10
#475000
1#
0%
#475507
1/
#478880
00
#480000
0!
0"
0#
1%
#480681
0/
0-
#480691
0.
#483236
0,
0$
#484349
10
#485000
1#
0%
#485507
1/
#488805
1,
1$
#490000
1"
0#
1%
#490517
1.
#490681
0/
#495000
1#
0%
#495507
1/
#500000
1!
0"
0#
1%
#500507
1-
#500681
0/
#500691
0.
#505000
1#
0%
#505507
1/
#510000
1"
0#
1%
#510517
1.
#510681
0/
#514049
00
#514349
10
#515000
1#
0%
#515507
1/
#518880
00
#520000
0!
0"
0#
1%
#520681
0/
0-
#520691
0.
#523236
0,
0$
#524349
10
#525000
1#
0%
#525507
1/
#528805
1,
1$
#530000
1"
0#
1%
#530517
1.
#530681
0/
#535000
1#
0%
#535507
1/
#540000
1!
0"
0#
1%
#540507
1-
#540681
0/
#540691
0.
#545000
1#
0%
#545507
1/
#550000
1"
0#
1%
#550517
1.
#550681
0/
#554049
00
#554349
10
#555000
1#
0%
#555507
1/
#558880
00
#560000
0!
0"
0#
1%
#560681
0/
0-
#560691
0.
#563236
0,
0$
#564349
10
#565000
1#
0%
#565507
1/
#568805
1,
1$
#570000
1"
0#
1%
#570517
1.
#570681
0/
#575000
1#
0%
#575507
1/
#580000
1!
0"
0#
1%
#580507
1-
#580681
0/
#580691
0.
#585000
1#
0%
#585507
1/
#590000
1"
0#
1%
#590517
1.
#590681
0/
#594049
00
#594349
10
#595000
1#
0%
#595507
1/
#598880
00
#600000
0!
0"
0#
1%
#600681
0/
0-
#600691
0.
#603236
0,
0$
#604349
10
#605000
1#
0%
#605507
1/
#608805
1,
1$
#610000
1"
0#
1%
#610517
1.
#610681
0/
#615000
1#
0%
#615507
1/
#620000
1!
0"
0#
1%
#620507
1-
#620681
0/
#620691
0.
#625000
1#
0%
#625507
1/
#630000
1"
0#
1%
#630517
1.
#630681
0/
#634049
00
#634349
10
#635000
1#
0%
#635507
1/
#638880
00
#640000
0!
0"
0#
1%
#640681
0/
0-
#640691
0.
#643236
0,
0$
#644349
10
#645000
1#
0%
#645507
1/
#648805
1,
1$
#650000
1"
0#
1%
#650517
1.
#650681
0/
#655000
1#
0%
#655507
1/
#660000
1!
0"
0#
1%
#660507
1-
#660681
0/
#660691
0.
#665000
1#
0%
#665507
1/
#670000
1"
0#
1%
#670517
1.
#670681
0/
#674049
00
#674349
10
#675000
1#
0%
#675507
1/
#678880
00
#680000
0!
0"
0#
1%
#680681
0/
0-
#680691
0.
#683236
0,
0$
#684349
10
#685000
1#
0%
#685507
1/
#688805
1,
1$
#690000
1"
0#
1%
#690517
1.
#690681
0/
#695000
1#
0%
#695507
1/
#700000
1!
0"
0#
1%
#700507
1-
#700681
0/
#700691
0.
#705000
1#
0%
#705507
1/
#710000
1"
0#
1%
#710517
1.
#710681
0/
#714049
00
#714349
10
#715000
1#
0%
#715507
1/
#718880
00
#720000
0!
0"
0#
1%
#720681
0/
0-
#720691
0.
#723236
0,
0$
#724349
10
#725000
1#
0%
#725507
1/
#728805
1,
1$
#730000
1"
0#
1%
#730517
1.
#730681
0/
#735000
1#
0%
#735507
1/
#740000
1!
0"
0#
1%
#740507
1-
#740681
0/
#740691
0.
#745000
1#
0%
#745507
1/
#750000
1"
0#
1%
#750517
1.
#750681
0/
#754049
00
#754349
10
#755000
1#
0%
#755507
1/
#758880
00
#760000
0!
0"
0#
1%
#760681
0/
0-
#760691
0.
#763236
0,
0$
#764349
10
#765000
1#
0%
#765507
1/
#768805
1,
1$
#770000
1"
0#
1%
#770517
1.
#770681
0/
#775000
1#
0%
#775507
1/
#780000
1!
0"
0#
1%
#780507
1-
#780681
0/
#780691
0.
#785000
1#
0%
#785507
1/
#790000
1"
0#
1%
#790517
1.
#790681
0/
#794049
00
#794349
10
#795000
1#
0%
#795507
1/
#798880
00
#800000
0!
0"
0#
1%
#800681
0/
0-
#800691
0.
#803236
0,
0$
#804349
10
#805000
1#
0%
#805507
1/
#808805
1,
1$
#810000
1"
0#
1%
#810517
1.
#810681
0/
#815000
1#
0%
#815507
1/
#820000
1!
0"
0#
1%
#820507
1-
#820681
0/
#820691
0.
#825000
1#
0%
#825507
1/
#830000
1"
0#
1%
#830517
1.
#830681
0/
#834049
00
#834349
10
#835000
1#
0%
#835507
1/
#838880
00
#840000
0!
0"
0#
1%
#840681
0/
0-
#840691
0.
#843236
0,
0$
#844349
10
#845000
1#
0%
#845507
1/
#848805
1,
1$
#850000
1"
0#
1%
#850517
1.
#850681
0/
#855000
1#
0%
#855507
1/
#860000
1!
0"
0#
1%
#860507
1-
#860681
0/
#860691
0.
#865000
1#
0%
#865507
1/
#870000
1"
0#
1%
#870517
1.
#870681
0/
#874049
00
#874349
10
#875000
1#
0%
#875507
1/
#878880
00
#880000
0!
0"
0#
1%
#880681
0/
0-
#880691
0.
#883236
0,
0$
#884349
10
#885000
1#
0%
#885507
1/
#888805
1,
1$
#890000
1"
0#
1%
#890517
1.
#890681
0/
#895000
1#
0%
#895507
1/
#900000
1!
0"
0#
1%
#900507
1-
#900681
0/
#900691
0.
#905000
1#
0%
#905507
1/
#910000
1"
0#
1%
#910517
1.
#910681
0/
#914049
00
#914349
10
#915000
1#
0%
#915507
1/
#918880
00
#920000
0!
0"
0#
1%
#920681
0/
0-
#920691
0.
#923236
0,
0$
#924349
10
#925000
1#
0%
#925507
1/
#928805
1,
1$
#930000
1"
0#
1%
#930517
1.
#930681
0/
#935000
1#
0%
#935507
1/
#940000
1!
0"
0#
1%
#940507
1-
#940681
0/
#940691
0.
#945000
1#
0%
#945507
1/
#950000
1"
0#
1%
#950517
1.
#950681
0/
#954049
00
#954349
10
#955000
1#
0%
#955507
1/
#958880
00
#960000
0!
0"
0#
1%
#960681
0/
0-
#960691
0.
#963236
0,
0$
#964349
10
#965000
1#
0%
#965507
1/
#968805
1,
1$
#970000
1"
0#
1%
#970517
1.
#970681
0/
#975000
1#
0%
#975507
1/
#980000
1!
0"
0#
1%
#980507
1-
#980681
0/
#980691
0.
#985000
1#
0%
#985507
1/
#990000
1"
0#
1%
#990517
1.
#990681
0/
#994049
00
#994349
10
#995000
1#
0%
#995507
1/
#998880
00
